{
  "project_info": {
    "project_number": "256697454938",
    "firebase_url": "https://testfirebase-397df.firebaseio.com",
    "project_id": "testfirebase-397df",
    "storage_bucket": "testfirebase-397df.appspot.com"
  },
  "client": [
    {
      "client_info": {
        "mobilesdk_app_id": "1:256697454938:android:5626f66e8f60b1cec9a363",
        "android_client_info": {
          "package_name": "com.weikeat.testfirebase"
        }
      },
      "oauth_client": [
        {
          "client_id": "256697454938-fe93gg2f0rba8b44gq3c9c0c5qnvil4a.apps.googleusercontent.com",
          "client_type": 3
        }
      ],
      "api_key": [
        {
          "current_key": "AIzaSyBfBTcZPtL8Ccxsu8YkqwUnZSnRjSKE7Og"
        }
      ],
      "services": {
        "appinvite_service": {
          "other_platform_oauth_client": [
            {
              "client_id": "256697454938-fe93gg2f0rba8b44gq3c9c0c5qnvil4a.apps.googleusercontent.com",
              "client_type": 3
            },
            {
              "client_id": "256697454938-jk82ns9c4knvi8b8leorb03pcfu6qnnf.apps.googleusercontent.com",
              "client_type": 2,
              "ios_info": {
                "bundle_id": "com.weikeat.testfirebase"
              }
            }
          ]
        }
      }
    }
  ],
  "configuration_version": "1"
}